{
	"statements":[
	{
		"text":"Do you Want a Gun?",
		"events":[],
		"responses":[
			{
				"text":"Yes",
				"events":["e10","e2","e4"],
				"GOTO":1
			},
			{
				"text":"No",
				"events":[],
				"GOTO":0
			}
		]
	},
	{
		"text":"Do you Want to equip a Bow?",
		"events":[],
		"responses":[
			{
				"text":"Yes",
				"events":["e5"],
				"GOTO":2
			},
			{
				"text":"No",
				"events":[],
				"GOTO":2
			}
		]
	},
	{
		"text":"Do you Want bow ammo?",
		"events":[],
		"responses":[
			{
				"text":"Yes",
				"events":["e7","e4"],
				"GOTO":2
			},
			{
				"text":"No",
				"events":[],
				"GOTO":2
			}
			]
	}
	]
}